(module "ACS756SCA-050B-PFF-T_3" (layer F.Cu)
  (descr "PFF-T")
  (tags "Undefined or Miscellaneous")
  (fp_text reference U** (at -0.944 10.692) (layer F.SilkS)
    (effects (font (size 1.27 1.27) (thickness 0.254)))
  )
  (fp_text user %R (at -0.944 10.692) (layer F.Fab)
    (effects (font (size 1.27 1.27) (thickness 0.254)))
  )
  (fp_text value "ACS756SCA-050B-PFF-T_3" (at -0.944 10.692) (layer F.SilkS) hide
    (effects (font (size 1.27 1.27) (thickness 0.254)))
  )
  (fp_line (start -5 5.5) (end 5 5.5) (layer F.Fab) (width 0.254))
  (fp_line (start 5 5.5) (end 5 18.5) (layer F.Fab) (width 0.254))
  (fp_line (start 5 18.5) (end -5 18.5) (layer F.Fab) (width 0.254))
  (fp_line (start -5 18.5) (end -5 5.5) (layer F.Fab) (width 0.254))
  (fp_line (start -5 5.5) (end 5 5.5) (layer F.SilkS) (width 0.254))
  (fp_line (start 5 5.5) (end 5 18.5) (layer F.SilkS) (width 0.254))
  (fp_line (start 5 18.5) (end -5 18.5) (layer F.SilkS) (width 0.254))
  (fp_line (start -5 18.5) (end -5 5.5) (layer F.SilkS) (width 0.254))
  (fp_line (start -7 -1) (end -3 -1) (layer F.Fab) (width 0.2))
  (fp_line (start -7 1) (end -3 1) (layer F.Fab) (width 0.2))
  (fp_line (start 3 -0.955) (end 7.057 -0.955) (layer F.Fab) (width 0.2))
  (fp_line (start 3 1) (end 7.057 1) (layer F.Fab) (width 0.2))
  (fp_line (start -7 -1) (end -3 -1) (layer F.SilkS) (width 0.2))
  (fp_line (start -7 1) (end -3 1) (layer F.SilkS) (width 0.2))
  (fp_line (start 3 -0.955) (end 7.057 -0.955) (layer F.SilkS) (width 0.2))
  (fp_line (start 3 1) (end 7.057 1) (layer F.SilkS) (width 0.2))
  (fp_line (start -6.499 -0.35) (end -7.199 -0.35) (layer F.SilkS) (width 0.1))
  (fp_line (start -7.199 -0.35) (end -7.199 0) (layer F.SilkS) (width 0.1))
  (fp_line (start -7.199 0) (end -6.499 0) (layer F.SilkS) (width 0.1))
  (fp_line (start -6.499 0) (end -6.499 0.35) (layer F.SilkS) (width 0.1))
  (fp_line (start -6.499 0.35) (end -7.199 0.35) (layer F.SilkS) (width 0.1))
  (fp_line (start -5.999 -0.334) (end -5.999 0.35) (layer F.SilkS) (width 0.1))
  (fp_line (start -5.999 0.35) (end -5.331 0.35) (layer F.SilkS) (width 0.1))
  (fp_line (start -3.599 -0.35) (end -2.899 -0.35) (layer F.SilkS) (width 0.1))
  (fp_line (start -3.249 -0.35) (end -3.249 0.35) (layer F.SilkS) (width 0.1))
  (fp_line (start 3.599 -0.35) (end 2.899 -0.35) (layer F.SilkS) (width 0.1))
  (fp_line (start 2.899 -0.35) (end 2.899 0) (layer F.SilkS) (width 0.1))
  (fp_line (start 2.899 0) (end 3.599 0) (layer F.SilkS) (width 0.1))
  (fp_line (start 3.599 0) (end 3.599 0.35) (layer F.SilkS) (width 0.1))
  (fp_line (start 3.599 0.35) (end 2.899 0.35) (layer F.SilkS) (width 0.1))
  (fp_line (start 4.099 -0.334) (end 4.099 0.35) (layer F.SilkS) (width 0.1))
  (fp_line (start 4.099 0.35) (end 4.767 0.35) (layer F.SilkS) (width 0.1))
  (fp_line (start 6.499 -0.35) (end 7.199 -0.35) (layer F.SilkS) (width 0.1))
  (fp_line (start 6.849 -0.35) (end 6.849 0.35) (layer F.SilkS) (width 0.1))
  (fp_circle (center -3.285 21.303) (end -3.285 21.442) (layer F.SilkS) (width 0.254))
  (fp_circle (center -4.449 0) (end -4.449 0.40964) (layer F.SilkS) (width 0.1))
  (fp_circle (center 5.649 0) (end 5.649 0.40964) (layer F.SilkS) (width 0.1))
  (fp_arc (start -7 0) (end -7 -1) (angle -180) (layer F.Fab) (width 0.2))
  (fp_arc (start -3 0) (end -3 -1) (angle 180) (layer F.Fab) (width 0.2))
  (fp_arc (start 3 0.0225) (end 3 -0.955) (angle -180) (layer F.Fab) (width 0.2))
  (fp_arc (start 7.02798 0.02229) (end 7.057 -0.95542) (angle 176.6) (layer F.Fab) (width 0.2))
  (fp_arc (start -7 0) (end -7 -1) (angle -180) (layer F.SilkS) (width 0.2))
  (fp_arc (start -3 0) (end -3 -1) (angle 180) (layer F.SilkS) (width 0.2))
  (fp_arc (start 3 0.0225) (end 3 -0.955) (angle -180) (layer F.SilkS) (width 0.2))
  (fp_arc (start 7.02797 0.0225) (end 7.057 -0.955) (angle 176.6) (layer F.SilkS) (width 0.2))
  (pad 1 thru_hole circle (at -1.91 21.4) (size 1.5 1.5) (drill 0.8) (layers *.Cu *.Mask))
  (pad 2 thru_hole circle (at 0 21.4) (size 1.5 1.5) (drill 0.8) (layers *.Cu *.Mask))
  (pad 3 thru_hole circle (at 1.91 21.4) (size 1.5 1.5) (drill 0.8) (layers *.Cu *.Mask))
  (pad 4 thru_hole circle (at 7 2) (size 1 1) (drill 0.5) (layers *.Cu *.Mask))
  (pad 5 thru_hole circle (at -4.33333 2) (size 1 1) (drill 0.5) (layers *.Cu *.Mask))
  (pad 6 thru_hole circle (at -3 2) (size 1 1) (drill 0.5) (layers *.Cu *.Mask))
  (pad 7 thru_hole circle (at -1.82443 1.61803) (size 1 1) (drill 0.5) (layers *.Cu *.Mask))
  (pad 8 thru_hole circle (at -1.09789 0.61803) (size 1 1) (drill 0.5) (layers *.Cu *.Mask))
  (pad 9 thru_hole circle (at -1.09789 -0.61803) (size 1 1) (drill 0.5) (layers *.Cu *.Mask))
  (pad 10 thru_hole circle (at -1.82443 -1.61803) (size 1 1) (drill 0.5) (layers *.Cu *.Mask))
  (pad 11 thru_hole circle (at -3 -2) (size 1 1) (drill 0.5) (layers *.Cu *.Mask))
  (pad 12 thru_hole circle (at -4.33333 -2) (size 1 1) (drill 0.5) (layers *.Cu *.Mask))
  (pad 13 thru_hole circle (at -5.66667 -2) (size 1 1) (drill 0.5) (layers *.Cu *.Mask))
  (pad 14 thru_hole circle (at -7 -2) (size 1 1) (drill 0.5) (layers *.Cu *.Mask))
  (pad 15 thru_hole circle (at -8.17557 -1.61803) (size 1 1) (drill 0.5) (layers *.Cu *.Mask))
  (pad 16 thru_hole circle (at -8.90211 -0.61803) (size 1 1) (drill 0.5) (layers *.Cu *.Mask))
  (pad 17 thru_hole circle (at -8.90211 0.61803) (size 1 1) (drill 0.5) (layers *.Cu *.Mask))
  (pad 18 thru_hole circle (at -8.17557 1.61803) (size 1 1) (drill 0.5) (layers *.Cu *.Mask))
  (pad 19 thru_hole circle (at -7 2) (size 1 1) (drill 0.5) (layers *.Cu *.Mask))
  (pad 20 thru_hole circle (at -5.66667 2) (size 1 1) (drill 0.5) (layers *.Cu *.Mask))
  (pad 21 thru_hole circle (at 5.66667 2) (size 1 1) (drill 0.5) (layers *.Cu *.Mask))
  (pad 22 thru_hole circle (at 4.33334 2) (size 1 1) (drill 0.5) (layers *.Cu *.Mask))
  (pad 23 thru_hole circle (at 3 2) (size 1 1) (drill 0.5) (layers *.Cu *.Mask))
  (pad 24 thru_hole circle (at 1.82443 1.61803) (size 1 1) (drill 0.5) (layers *.Cu *.Mask))
  (pad 25 thru_hole circle (at 1.09789 0.61803) (size 1 1) (drill 0.5) (layers *.Cu *.Mask))
  (pad 26 thru_hole circle (at 1.09789 -0.61804) (size 1 1) (drill 0.5) (layers *.Cu *.Mask))
  (pad 27 thru_hole circle (at 1.82443 -1.61804) (size 1 1) (drill 0.5) (layers *.Cu *.Mask))
  (pad 28 thru_hole circle (at 3 -2) (size 1 1) (drill 0.5) (layers *.Cu *.Mask))
  (pad 29 thru_hole circle (at 4.33334 -2) (size 1 1) (drill 0.5) (layers *.Cu *.Mask))
  (pad 30 thru_hole circle (at 5.66667 -2) (size 1 1) (drill 0.5) (layers *.Cu *.Mask))
  (pad 31 thru_hole circle (at 7 -2) (size 1 1) (drill 0.5) (layers *.Cu *.Mask))
  (pad 32 thru_hole circle (at 8.17557 -1.61804) (size 1 1) (drill 0.5) (layers *.Cu *.Mask))
  (pad 33 thru_hole circle (at 8.90211 -0.61804) (size 1 1) (drill 0.5) (layers *.Cu *.Mask))
  (pad 34 thru_hole circle (at 8.90211 0.61803) (size 1 1) (drill 0.5) (layers *.Cu *.Mask))
  (pad 35 thru_hole circle (at 8.17557 1.61803) (size 1 1) (drill 0.5) (layers *.Cu *.Mask))
)
